Browser,Average (sec),Empty,.amazon.,.apple.,.ebay.,.microsoft.,.myspace.,.pcworld.,.wikipedia.,.yahoo.,.youtube.
,,,,,,,,,,,
Chrome 2 Beta,1.30,,2.61,0.98,0.83,1.30,1.43,1.36,1.12,1.00,1.09
Internet Explorer 8,1.80,,3.28,1.01,1.13,1.50,2.59,1.51,2.24,1.35,1.59
Firefox 3.0.7,2.12,,2.54,2.03,1.41,1.96,2.94,1.85,3.31,1.48,1.60
Safari  4 Beta,2.12,,2.42,1.62,1.37,1.42,4.20,1.51,3.38,1.49,1.67
