0
1
0
6
0
0
1
1
0
0
2
0
1
1
0
1
1
2
3
0
0
1
2
0
1
3
0
0
4
0
0
1
0
0
1
0
0
2
0
0
1
0
0
2
2
0
1
3
0
0
0
0
0
1
0
1
2
0
1
0
0
5
0
0
6
0
0
0
3
0
0
0
0
0
4
0
0
3
1
1
8
0
3
0
2
0
3
0
0
0
0
0
0
3
0
3
0
4
0
2
2
1
0
4
1
0
0
0
3
3
2
6
1
2
1
3
0
9
2
0
2
4
0
0
0
0
9
0
0
1
2
0
0
0
0
0
1
1
2
0
1
2
2
0
0
3
0
9
6
8
0
3
1
1
3
2
3
4
0
9
4
0
2
0
1
1
0
2
0
0
2
2
1
2
3
0
0
3
1
0
0
1
1
10
0
0
0
1
0
0
1
1
3
0
2
3
1
1
0
6
1
0
3
1
0
0
2
1
0
0
0
0
3
3
5
0
2
2
2
2
8
2
0
7
0
0
3
2
3
7
4
0
2
6
0
0
0
1
1
2
5
0
0
1
1
12
0
1
3
3
4
0
1
0
0
2
2
3
5
4
6
12
1
0
2
1
1
0
6
1
1
2
3
1
0
0
0
3
2
3
4
0
3
3
0
8
0
0
0
0
8
0
0
1
0
0
0
3
0
0
0
0
0
2
2
0
0
1
0
1
0
1
0
5
4
0
0
4
19
0
1
0
0
2
4
0
0
0
0
9
0
0
0
1
3
0
0
1
0
0
0
3
0
1
2
6
0
0
0
0
1
